simulation/qsim/LogicalStep_Lab4.msim.vcd
$comment
	File created using the following command:
		vcd file LogicalStep_Lab4.msim.vcd -direction
$end
$date
	Mon Jul 15 13:00:00 2024
$end
$version
	ModelSim Version 10.5b
$end
$timescale
	1ps
$end

$scope module logicalstep_lab4_top_vhd_vec_tst $end
$var wire 1 ! blink_sig_temp $end
$var wire 1 " clkin_50 $end
$var wire 1 # EW_a $end
$var wire 1 $ EW_d $end
$var wire 1 % EW_g $end
$var wire 1 & leds [7] $end
$var wire 1 ' leds [6] $end
$var wire 1 ( leds [5] $end
$var wire 1 ) leds [4] $end
$var wire 1 * leds [3] $end
$var wire 1 + leds [2] $end
$var wire 1 , leds [1] $end
$var wire 1 - leds [0] $end
$var wire 1 . NS_a $end
$var wire 1 / NS_d $end
$var wire 1 0 NS_g $end
$var wire 1 1 pb_n [3] $end
$var wire 1 2 pb_n [2] $end
$var wire 1 3 pb_n [1] $end
$var wire 1 4 pb_n [0] $end
$var wire 1 5 rst_n $end
$var wire 1 6 seg7_char1 $end
$var wire 1 7 seg7_char2 $end
$var wire 1 8 seg7_data [6] $end
$var wire 1 9 seg7_data [5] $end
$var wire 1 : seg7_data [4] $end
$var wire 1 ; seg7_data [3] $end
$var wire 1 < seg7_data [2] $end
$var wire 1 = seg7_data [1] $end
$var wire 1 > seg7_data [0] $end
$var wire 1 ? sm_clken_temp $end
$var wire 1 @ sw [7] $end
$var wire 1 A sw [6] $end
$var wire 1 B sw [5] $end
$var wire 1 C sw [4] $end
$var wire 1 D sw [3] $end
$var wire 1 E sw [2] $end
$var wire 1 F sw [1] $end
$var wire 1 G sw [0] $end

$scope module i1 $end
$var wire 1 H gnd $end
$var wire 1 I vcc $end
$var wire 1 J unknown $end
$var wire 1 K devoe $end
$var wire 1 L devclrn $end
$var wire 1 M devpor $end
$var wire 1 N ww_devoe $end
$var wire 1 O ww_devclrn $end
$var wire 1 P ww_devpor $end
$var wire 1 Q ww_clkin_50 $end
$var wire 1 R ww_rst_n $end
$var wire 1 S ww_pb_n [3] $end
$var wire 1 T ww_pb_n [2] $end
$var wire 1 U ww_pb_n [1] $end
$var wire 1 V ww_pb_n [0] $end
$var wire 1 W ww_sw [7] $end
$var wire 1 X ww_sw [6] $end
$var wire 1 Y ww_sw [5] $end
$var wire 1 Z ww_sw [4] $end
$var wire 1 [ ww_sw [3] $end
$var wire 1 \ ww_sw [2] $end
$var wire 1 ] ww_sw [1] $end
$var wire 1 ^ ww_sw [0] $end
$var wire 1 _ ww_leds [7] $end
$var wire 1 ` ww_leds [6] $end
$var wire 1 a ww_leds [5] $end
$var wire 1 b ww_leds [4] $end
$var wire 1 c ww_leds [3] $end
$var wire 1 d ww_leds [2] $end
$var wire 1 e ww_leds [1] $end
$var wire 1 f ww_leds [0] $end
$var wire 1 g ww_sm_clken_temp $end
$var wire 1 h ww_blink_sig_temp $end
$var wire 1 i ww_EW_a $end
$var wire 1 j ww_EW_d $end
$var wire 1 k ww_EW_g $end
$var wire 1 l ww_NS_a $end
$var wire 1 m ww_NS_d $end
$var wire 1 n ww_NS_g $end
$var wire 1 o ww_seg7_data [6] $end
$var wire 1 p ww_seg7_data [5] $end
$var wire 1 q ww_seg7_data [4] $end
$var wire 1 r ww_seg7_data [3] $end
$var wire 1 s ww_seg7_data [2] $end
$var wire 1 t ww_seg7_data [1] $end
$var wire 1 u ww_seg7_data [0] $end
$var wire 1 v ww_seg7_char1 $end
$var wire 1 w ww_seg7_char2 $end
$var wire 1 x \pb_n[2]~input_o\ $end
$var wire 1 y \pb_n[3]~input_o\ $end
$var wire 1 z \sw[0]~input_o\ $end
$var wire 1 { \sw[1]~input_o\ $end
$var wire 1 | \sw[2]~input_o\ $end
$var wire 1 } \sw[3]~input_o\ $end
$var wire 1 ~ \sw[4]~input_o\ $end
$var wire 1 !! \sw[5]~input_o\ $end
$var wire 1 "! \sw[6]~input_o\ $end
$var wire 1 #! \sw[7]~input_o\ $end
$var wire 1 $! \seg7_data[6]~output_o\ $end
$var wire 1 %! \leds[0]~output_o\ $end
$var wire 1 &! \leds[1]~output_o\ $end
$var wire 1 '! \leds[2]~output_o\ $end
$var wire 1 (! \leds[3]~output_o\ $end
$var wire 1 )! \leds[4]~output_o\ $end
$var wire 1 *! \leds[5]~output_o\ $end
$var wire 1 +! \leds[6]~output_o\ $end
$var wire 1 ,! \leds[7]~output_o\ $end
$var wire 1 -! \sm_clken_temp~output_o\ $end
$var wire 1 .! \blink_sig_temp~output_o\ $end
$var wire 1 /! \EW_a~output_o\ $end
$var wire 1 0! \EW_d~output_o\ $end
$var wire 1 1! \EW_g~output_o\ $end
$var wire 1 2! \NS_a~output_o\ $end
$var wire 1 3! \NS_d~output_o\ $end
$var wire 1 4! \NS_g~output_o\ $end
$var wire 1 5! \seg7_data[0]~output_o\ $end
$var wire 1 6! \seg7_data[1]~output_o\ $end
$var wire 1 7! \seg7_data[2]~output_o\ $end
$var wire 1 8! \seg7_data[3]~output_o\ $end
$var wire 1 9! \seg7_data[4]~output_o\ $end
$var wire 1 :! \seg7_data[5]~output_o\ $end
$var wire 1 ;! \seg7_char1~output_o\ $end
$var wire 1 <! \seg7_char2~output_o\ $end
$var wire 1 =! \clkin_50~input_o\ $end
$var wire 1 >! \pb_n[0]~input_o\ $end
$var wire 1 ?! \INST0|pb_n_filtered[0]~0_combout\ $end
$var wire 1 @! \rst_n~input_o\ $end
$var wire 1 A! \INST0|rst_n_filtered~0_combout\ $end
$var wire 1 B! \INST3|sreg~0_combout\ $end
$var wire 1 C! \INST5|sreg~0_combout\ $end
$var wire 1 D! \INST7|sreg~0_combout\ $end
$var wire 1 E! \INST7|sreg~q\ $end
$var wire 1 F! \pb_n[1]~input_o\ $end
$var wire 1 G! \INST0|pb_n_filtered[1]~1_combout\ $end
$var wire 1 H! \INST4|sreg~0_combout\ $end
$var wire 1 I! \INST6|sreg~0_combout\ $end
$var wire 1 J! \INST6|sreg~q\ $end
$var wire 1 K! \INST2|clk_divider:counter[0]~1_combout\ $end
$var wire 1 L! \INST2|clk_divider:counter[0]~q\ $end
$var wire 1 M! \INST2|clk_divider:counter[0]~2\ $end
$var wire 1 N! \INST2|clk_divider:counter[1]~1_combout\ $end
$var wire 1 O! \INST2|clk_divider:counter[1]~q\ $end
$var wire 1 P! \INST2|clk_divider:counter[1]~2\ $end
$var wire 1 Q! \INST2|clk_divider:counter[2]~1_combout\ $end
$var wire 1 R! \INST2|clk_divider:counter[2]~q\ $end
$var wire 1 S! \INST2|clk_divider:counter[2]~2\ $end
$var wire 1 T! \INST2|clk_divider:counter[3]~1_combout\ $end
$var wire 1 U! \INST2|clk_divider:counter[3]~q\ $end
$var wire 1 V! \INST2|clk_divider:counter[3]~2\ $end
$var wire 1 W! \INST2|clk_divider:counter[4]~1_combout\ $end
$var wire 1 X! \INST2|clk_divider:counter[4]~q\ $end
$var wire 1 Y! \INST2|clk_reg_extend~0_combout\ $end
$var wire 1 Z! \INST2|clk_reg_extend~1_combout\ $end
$var wire 1 [! \INST2|sm_clken~combout\ $end
$var wire 1 \! \INST8|current_state~48_combout\ $end
$var wire 1 ]! \INST8|current_state.S15~q\ $end
$var wire 1 ^! \INST8|current_state~45_combout\ $end
$var wire 1 _! \INST8|current_state.S0~q\ $end
$var wire 1 `! \INST8|next_state.S1~0_combout\ $end
$var wire 1 a! \INST8|current_state~35_combout\ $end
$var wire 1 b! \INST8|current_state.S1~q\ $end
$var wire 1 c! \INST8|next_state.S2~0_combout\ $end
$var wire 1 d! \INST8|current_state.S2~q\ $end
$var wire 1 e! \INST8|current_state~34_combout\ $end
$var wire 1 f! \INST8|current_state.S3~q\ $end
$var wire 1 g! \INST8|current_state~36_combout\ $end
$var wire 1 h! \INST8|current_state.S4~q\ $end
$var wire 1 i! \INST8|current_state~37_combout\ $end
$var wire 1 j! \INST8|current_state.S5~q\ $end
$var wire 1 k! \INST8|WideOr4~0_combout\ $end
$var wire 1 l! \INST8|current_state~41_combout\ $end
$var wire 1 m! \INST8|current_state~42_combout\ $end
$var wire 1 n! \INST8|current_state.S6~q\ $end
$var wire 1 o! \INST8|current_state~47_combout\ $end
$var wire 1 p! \INST8|current_state.S7~q\ $end
$var wire 1 q! \INST8|current_state~46_combout\ $end
$var wire 1 r! \INST8|current_state.S8~q\ $end
$var wire 1 s! \INST8|next_state.S9~0_combout\ $end
$var wire 1 t! \INST8|current_state.S9~q\ $end
$var wire 1 u! \INST8|next_state.S10~0_combout\ $end
$var wire 1 v! \INST8|current_state.S10~q\ $end
$var wire 1 w! \INST8|current_state~38_combout\ $end
$var wire 1 x! \INST8|current_state.S11~q\ $end
$var wire 1 y! \INST8|current_state~39_combout\ $end
$var wire 1 z! \INST8|current_state.S12~q\ $end
$var wire 1 {! \INST8|current_state~40_combout\ $end
$var wire 1 |! \INST8|current_state.S13~q\ $end
$var wire 1 }! \INST8|WideOr7~1_combout\ $end
$var wire 1 ~! \INST8|current_state~43_combout\ $end
$var wire 1 !" \INST8|current_state~44_combout\ $end
$var wire 1 "" \INST8|current_state.S14~q\ $end
$var wire 1 #" \INST9|clk_proc:COUNT[0]~0_combout\ $end
$var wire 1 $" \INST9|clk_proc:COUNT[0]~q\ $end
$var wire 1 %" \INST9|clk_proc:COUNT[1]~1_combout\ $end
$var wire 1 &" \INST9|clk_proc:COUNT[1]~q\ $end
$var wire 1 '" \INST9|clk_proc:COUNT[1]~2\ $end
$var wire 1 (" \INST9|clk_proc:COUNT[2]~1_combout\ $end
$var wire 1 )" \INST9|clk_proc:COUNT[2]~q\ $end
$var wire 1 *" \INST9|clk_proc:COUNT[2]~2\ $end
$var wire 1 +" \INST9|clk_proc:COUNT[3]~1_combout\ $end
$var wire 1 ," \INST9|clk_proc:COUNT[3]~q\ $end
$var wire 1 -" \INST9|clk_proc:COUNT[3]~2\ $end
$var wire 1 ." \INST9|clk_proc:COUNT[4]~1_combout\ $end
$var wire 1 /" \INST9|clk_proc:COUNT[4]~q\ $end
$var wire 1 0" \INST9|clk_proc:COUNT[4]~2\ $end
$var wire 1 1" \INST9|clk_proc:COUNT[5]~1_combout\ $end
$var wire 1 2" \INST9|clk_proc:COUNT[5]~q\ $end
$var wire 1 3" \INST9|clk_proc:COUNT[5]~2\ $end
$var wire 1 4" \INST9|clk_proc:COUNT[6]~1_combout\ $end
$var wire 1 5" \INST9|clk_proc:COUNT[6]~q\ $end
$var wire 1 6" \INST9|clk_proc:COUNT[6]~2\ $end
$var wire 1 7" \INST9|clk_proc:COUNT[7]~1_combout\ $end
$var wire 1 8" \INST9|clk_proc:COUNT[7]~q\ $end
$var wire 1 9" \INST9|clk_proc:COUNT[7]~2\ $end
$var wire 1 :" \INST9|clk_proc:COUNT[8]~1_combout\ $end
$var wire 1 ;" \INST9|clk_proc:COUNT[8]~q\ $end
$var wire 1 <" \INST9|clk_proc:COUNT[8]~2\ $end
$var wire 1 =" \INST9|clk_proc:COUNT[9]~1_combout\ $end
$var wire 1 >" \INST9|clk_proc:COUNT[9]~q\ $end
$var wire 1 ?" \INST9|clk_proc:COUNT[9]~2\ $end
$var wire 1 @" \INST9|clk_proc:COUNT[10]~1_combout\ $end
$var wire 1 A" \INST9|clk_proc:COUNT[10]~q\ $end
$var wire 1 B" \INST8|yellow~0_combout\ $end
$var wire 1 C" \INST9|DOUT_TEMP[6]~0_combout\ $end
$var wire 1 D" \INST8|WideOr2~0_combout\ $end
$var wire 1 E" \INST8|WideOr6~0_combout\ $end
$var wire 1 F" \INST8|WideOr9~0_combout\ $end
$var wire 1 G" \INST8|WideOr8~0_combout\ $end
$var wire 1 H" \INST8|WideOr9~combout\ $end
$var wire 1 I" \INST8|WideOr8~1_combout\ $end
$var wire 1 J" \INST8|WideOr8~combout\ $end
$var wire 1 K" \INST8|WideOr7~0_combout\ $end
$var wire 1 L" \INST8|WideOr7~combout\ $end
$var wire 1 M" \INST8|WideOr4~combout\ $end
$var wire 1 N" \INST2|blink_sig~0_combout\ $end
$var wire 1 O" \INST2|blink_sig~q\ $end
$var wire 1 P" \INST8|Selector3~2_combout\ $end
$var wire 1 Q" \INST8|yellow_EW~combout\ $end
$var wire 1 R" \INST8|Selector2~2_combout\ $end
$var wire 1 S" \INST9|DOUT[0]~0_combout\ $end
$var wire 1 T" \INST9|DOUT[3]~1_combout\ $end
$var wire 1 U" \INST0|sreg4\ [3] $end
$var wire 1 V" \INST0|sreg4\ [2] $end
$var wire 1 W" \INST0|sreg4\ [1] $end
$var wire 1 X" \INST0|sreg4\ [0] $end
$var wire 1 Y" \INST3|sreg\ [1] $end
$var wire 1 Z" \INST3|sreg\ [0] $end
$var wire 1 [" \INST5|sreg\ [1] $end
$var wire 1 \" \INST5|sreg\ [0] $end
$var wire 1 ]" \INST4|sreg\ [1] $end
$var wire 1 ^" \INST4|sreg\ [0] $end
$var wire 1 _" \INST2|clk_reg_extend\ [1] $end
$var wire 1 `" \INST2|clk_reg_extend\ [0] $end
$var wire 1 a" \INST0|sreg0\ [3] $end
$var wire 1 b" \INST0|sreg0\ [2] $end
$var wire 1 c" \INST0|sreg0\ [1] $end
$var wire 1 d" \INST0|sreg0\ [0] $end
$var wire 1 e" \INST0|sreg1\ [3] $end
$var wire 1 f" \INST0|sreg1\ [2] $end
$var wire 1 g" \INST0|sreg1\ [1] $end
$var wire 1 h" \INST0|sreg1\ [0] $end
$var wire 1 i" \INST8|ALT_INV_yellow~0_combout\ $end
$var wire 1 j" \INST8|ALT_INV_WideOr4~combout\ $end
$var wire 1 k" \INST8|ALT_INV_WideOr7~combout\ $end
$var wire 1 l" \INST8|ALT_INV_WideOr8~combout\ $end
$var wire 1 m" \INST8|ALT_INV_WideOr9~combout\ $end
$var wire 1 n" \INST8|ALT_INV_WideOr2~0_combout\ $end
$var wire 1 o" \INST9|ALT_INV_clk_proc:COUNT[10]~q\ $end
$upscope $end
$upscope $end
$enddefinitions $end
#0
$dumpvars
0!
0"
1#
0$
0%
0.
0/
00
05
16
07
0?
0H
1I
xJ
1K
1L
1M
1N
1O
1P
0Q
0R
0g
0h
1i
0j
0k
0l
0m
0n
1v
0w
0x
0y
xz
x{
x|
x}
x~
x!!
x"!
x#!
0$!
0%!
0&!
0'!
0(!
0)!
0*!
0+!
0,!
0-!
0.!
1/!
00!
01!
02!
03!
04!
15!
06!
07!
08!
09!
0:!
1;!
0<!
0=!
1>!
1?!
0@!
1A!
0B!
0C!
0D!
0E!
1F!
1G!
0H!
0I!
0J!
1K!
0L!
0M!
0N!
0O!
1P!
0Q!
0R!
0S!
0T!
0U!
1V!
0W!
0X!
0Y!
0Z!
0[!
0\!
0]!
0^!
0_!
1`!
0a!
0b!
0c!
0d!
0e!
0f!
0g!
0h!
0i!
0j!
0k!
0l!
0m!
0n!
0o!
0p!
0q!
0r!
0s!
0t!
0u!
0v!
0w!
0x!
0y!
0z!
0{!
0|!
1}!
0~!
0!"
0""
1#"
0$"
0%"
0&"
0'"
0("
0)"
1*"
0+"
0,"
0-"
0."
0/"
10"
01"
02"
03"
04"
05"
16"
07"
08"
09"
0:"
0;"
1<"
0="
0>"
0?"
0@"
0A"
1B"
0C"
1D"
0E"
0F"
0G"
1H"
0I"
1J"
1K"
1L"
1M"
0N"
0O"
0P"
0Q"
0R"
1S"
0T"
0i"
0j"
0k"
0l"
0m"
0n"
1o"
01
02
13
14
0S
0T
1U
1V
xW
xX
xY
xZ
x[
x\
x]
x^
0_
0`
0a
0b
0c
0d
0e
0f
0o
0p
0q
0r
0s
0t
1u
0U"
0V"
0W"
0X"
0Y"
0Z"
0["
0\"
0]"
0^"
0_"
0`"
0a"
0b"
0c"
0d"
0e"
0f"
0g"
0h"
0&
0'
0(
0)
0*
0+
0,
0-
08
09
0:
0;
0<
0=
1>
x@
xA
xB
xC
xD
xE
xF
xG
$end
#10000
1"
1Q
1=!
1d"
1Z"
1\"
1h"
1^"
1L!
1$"
0#"
1%"
0K!
1M!
1H!
1C!
1B!
1N!
#20000
0"
0Q
0=!
#30000
1"
1Q
1=!
1c"
1Y"
1["
1g"
1]"
0L!
1O!
0$"
1&"
1#"
0N!
0P!
1K!
0M!
0G!
0B!
0C!
0H!
1a!
0?!
1N!
1P!
1Q!
0Q!
#40000
0"
0Q
0=!
#50000
1"
1Q
1=!
1b"
0Z"
0Y"
0\"
0["
1f"
0^"
0]"
0O!
1$"
0#"
0%"
1'"
0N!
0a!
1("
#60000
0"
0Q
0=!
#70000
1"
1Q
1=!
1a"
1Z"
1e"
1L!
0$"
0&"
1)"
0("
0*"
1#"
0'"
0K!
1M!
1B!
1N!
1("
1*"
1+"
0+"
#80000
0"
0Q
0=!
#90000
1"
1Q
1=!
1Y"
0L!
1O!
1$"
0#"
1%"
0N!
0P!
1K!
0M!
0B!
1a!
1N!
1P!
1Q!
0Q!
#100000
0"
0Q
0=!
#110000
1"
1Q
1=!
0Z"
0Y"
0O!
0$"
1&"
1#"
0N!
0a!
#120000
0"
0Q
0=!
#130000
1"
1Q
1=!
1Z"
1L!
1$"
0#"
0%"
1'"
0K!
1M!
1B!
1N!
0("
0*"
1+"
#140000
0"
0Q
0=!
#150000
1"
1Q
1=!
1Y"
0L!
1O!
0$"
0&"
0)"
1,"
0+"
1-"
1("
1*"
1#"
0'"
0N!
0P!
1K!
0M!
0B!
1a!
1N!
1P!
1Q!
0("
1+"
0-"
1."
0."
0Q!
#160000
0"
0Q
0=!
#170000
1"
1Q
1=!
0Z"
0Y"
0O!
1$"
0#"
1%"
0N!
0a!
#180000
0"
0Q
0=!
#190000
1"
1Q
1=!
1Z"
1L!
0$"
1&"
1#"
0K!
1M!
1B!
1N!
#200000
0"
0Q
0=!
#210000
1"
1Q
1=!
1Y"
0L!
1O!
1$"
0#"
0%"
1'"
0N!
0P!
1K!
0M!
0B!
1a!
1N!
1P!
1Q!
1("
0Q!
#220000
0"
0Q
0=!
#230000
1"
1Q
1=!
0Z"
0Y"
0O!
0$"
0&"
1)"
0("
0*"
1#"
0'"
0N!
0a!
1("
1*"
0+"
1-"
1."
1+"
0-"
0."
#240000
0"
0Q
0=!
#250000
1"
1Q
1=!
1Z"
1L!
1$"
0#"
1%"
0K!
1M!
1B!
1N!
#260000
0"
0Q
0=!
#270000
1"
1Q
1=!
1Y"
0L!
1O!
0$"
1&"
1#"
0N!
0P!
1K!
0M!
0B!
1a!
1N!
1P!
1Q!
0Q!
#280000
0"
0Q
0=!
#290000
1"
1Q
1=!
0Z"
0Y"
0O!
1$"
0#"
0%"
1'"
0N!
0a!
0("
0*"
0+"
1-"
1."
#300000
0"
15
0Q
1R
1@!
0=!
#310000
1"
1Q
1=!
1X"
1Z"
1L!
0$"
0&"
0)"
0,"
1/"
0."
00"
1+"
0-"
1("
1*"
1#"
0'"
0K!
1M!
1B!
1N!
0("
0+"
1."
10"
11"
01"
#320000
0"
0Q
0=!
#330000
1"
1Q
1=!
1W"
1Y"
0L!
1O!
1$"
0#"
1%"
0N!
0P!
1K!
0M!
0B!
1a!
0A!
1N!
1P!
1Q!
0Q!
#340000
0"
0Q
0=!
#350000
1"
1Q
1=!
1V"
0Z"
0Y"
0O!
0$"
1&"
1#"
0N!
0a!
#360000
0"
0Q
0=!
#370000
1"
1Q
1=!
1U"
1L!
1$"
0#"
0%"
1'"
0K!
1M!
1N!
1("
#380000
0"
0Q
0=!
#390000
1"
1Q
1=!
0L!
1O!
0$"
0&"
1)"
0("
0*"
1#"
0'"
0N!
0P!
1K!
0M!
1N!
1P!
1Q!
1("
1*"
1+"
0+"
0Q!
#400000
0"
0Q
0=!
#410000
1"
1Q
1=!
1L!
1$"
0#"
1%"
0K!
1M!
0N!
0P!
1Q!
#420000
0"
0Q
0=!
#430000
1"
1Q
1=!
0L!
0O!
1R!
0$"
1&"
1#"
0Q!
1S!
1N"
1N!
1P!
1K!
0M!
0N!
1Q!
0S!
1T!
0T!
#440000
0"
0Q
0=!
#450000
1"
1Q
1=!
1L!
1$"
1O"
1.!
1R"
0#"
0%"
1'"
0K!
1M!
1h
13!
1N!
0("
0*"
1!
1m
1+"
1/
#460000
0"
0Q
0=!
#470000
1"
1Q
1=!
0L!
1O!
0$"
0&"
0)"
1,"
0+"
1-"
1("
1*"
1#"
0'"
0N!
0P!
1K!
0M!
1N!
1P!
0Q!
1S!
0("
1+"
0-"
0."
00"
11"
1."
10"
1T!
1Q!
0S!
0T!
01"
#480000
0"
0Q
0=!
#490000
1"
1Q
1=!
1L!
1$"
0#"
1%"
0K!
1M!
0N!
0P!
0Q!
1S!
1T!
#500000
0"
0Q
0=!
#510000
1"
1Q
1=!
0L!
0O!
0R!
1U!
0$"
1&"
1#"
0T!
0V!
1Q!
0S!
0N"
1N!
1P!
1K!
0M!
0N!
0Q!
1T!
1V!
1W!
0W!
#520000
0"
0Q
0=!
#530000
1"
1Q
1=!
1L!
1$"
0O"
0.!
0R"
0#"
0%"
1'"
0K!
1M!
0h
03!
1N!
1("
0!
0m
0/
#540000
0"
0Q
0=!
#550000
1"
1Q
1=!
0L!
1O!
0$"
0&"
1)"
0("
0*"
1#"
0'"
0N!
0P!
1K!
0M!
1N!
1P!
1Q!
1("
1*"
0+"
1-"
0."
00"
1+"
0-"
0Q!
1."
10"
11"
01"
#560000
0"
0Q
0=!
#570000
1"
1Q
1=!
1L!
1$"
0#"
1%"
0K!
1M!
0N!
0P!
1Q!
#580000
0"
0Q
0=!
#590000
1"
1Q
1=!
0L!
0O!
1R!
0$"
1&"
1#"
0Q!
1S!
1N"
1N!
1P!
1K!
0M!
0N!
1Q!
0S!
0T!
0V!
1W!
1T!
1V!
0W!
#600000
0"
0Q
0=!
#610000
1"
1Q
1=!
1L!
1$"
1O"
1.!
1R"
0#"
0%"
1'"
0K!
1M!
1h
13!
1N!
0("
0*"
1!
1m
0+"
1-"
1/
0."
00"
11"
#620000
0"
0Q
0=!
#630000
1"
1Q
1=!
0L!
1O!
0$"
0&"
0)"
0,"
0/"
12"
01"
13"
1."
10"
1+"
0-"
1("
1*"
1#"
0'"
0N!
0P!
1K!
0M!
1N!
1P!
0Q!
1S!
0("
0+"
0."
11"
03"
14"
04"
0T!
0V!
1Q!
0S!
1T!
1V!
1W!
0W!
#640000
0"
0Q
0=!
#650000
1"
1Q
1=!
1L!
1$"
0#"
1%"
0K!
1M!
0N!
0P!
0Q!
1S!
0T!
0V!
1W!
#660000
0"
0Q
0=!
#670000
1"
1Q
1=!
0L!
0O!
0R!
0U!
1X!
0$"
1&"
1#"
0W!
1Y!
1T!
1V!
1Q!
0S!
0N"
1N!
1P!
1K!
0M!
0N!
0Q!
0T!
1W!
#680000
0"
0Q
0=!
#690000
1"
1Q
1=!
1L!
1`"
1$"
0O"
0.!
0R"
0#"
0%"
1'"
1Z!
1[!
1a!
0K!
1M!
0h
1-!
03!
1N!
1^!
1("
0!
1g
0m
1?
0/
#700000
0"
0Q
0=!
#710000
1"
1Q
1=!
0L!
1O!
1_"
1_!
1b!
0$"
0&"
1)"
0("
0*"
1#"
0'"
1c!
1I"
0`!
1G"
0[!
0a!
0N!
0P!
1K!
0M!
0-!
1N!
1P!
1Q!
0H"
1("
1*"
1+"
1m"
0g
0+"
0Q!
0?
1)!
1b
1)
#720000
0"
0Q
0=!
#730000
1"
1Q
1=!
1L!
1$"
0#"
1%"
0K!
1M!
0N!
0P!
1Q!
#740000
0"
0Q
0=!
#750000
1"
1Q
1=!
0L!
0O!
1R!
0$"
1&"
1#"
0Q!
1S!
1N"
1N!
1P!
1K!
0M!
0N!
1Q!
0S!
1T!
0T!
#760000
0"
0Q
0=!
#770000
1"
1Q
1=!
1L!
1$"
1O"
1.!
1R"
0#"
0%"
1'"
0K!
1M!
1h
13!
1N!
0("
0*"
1!
1m
1+"
1/
#780000
0"
0Q
0=!
#790000
1"
1Q
1=!
0L!
1O!
0$"
0&"
0)"
1,"
0+"
1-"
1("
1*"
1#"
0'"
0N!
0P!
1K!
0M!
1N!
1P!
0Q!
1S!
0("
1+"
0-"
1."
0."
1T!
1Q!
0S!
0T!
#800000
0"
0Q
0=!
#810000
1"
1Q
1=!
1L!
1$"
0#"
1%"
0K!
1M!
0N!
0P!
0Q!
1S!
1T!
#820000
0"
0Q
0=!
#830000
1"
1Q
1=!
0L!
0O!
0R!
1U!
0$"
1&"
1#"
0T!
0V!
1Q!
0S!
0N"
1N!
1P!
1K!
0M!
0N!
0Q!
1T!
1V!
0W!
1W!
#840000
0"
0Q
0=!
#850000
1"
1Q
1=!
1L!
1$"
0O"
0.!
0R"
0#"
0%"
1'"
0K!
1M!
0h
03!
1N!
1("
0!
0m
0/
#860000
0"
0Q
0=!
#870000
1"
1Q
1=!
0L!
1O!
0$"
0&"
1)"
0("
0*"
1#"
0'"
0N!
0P!
1K!
0M!
1N!
1P!
1Q!
1("
1*"
0+"
1-"
1."
1+"
0-"
0Q!
0."
#880000
0"
0Q
0=!
#890000
1"
1Q
1=!
1L!
1$"
0#"
1%"
0K!
1M!
0N!
0P!
1Q!
#900000
0"
0Q
0=!
#910000
1"
1Q
1=!
0L!
0O!
1R!
0$"
1&"
1#"
0Q!
1S!
1N"
1N!
1P!
1K!
0M!
0N!
1Q!
0S!
0T!
0V!
0W!
1T!
1V!
1W!
#920000
0"
0Q
0=!
#930000
1"
1Q
1=!
1L!
1$"
1O"
1.!
1R"
0#"
0%"
1'"
0K!
1M!
1h
13!
1N!
0("
0*"
1!
1m
0+"
1-"
1/
1."
#940000
0"
0Q
0=!
#950000
1"
1Q
1=!
0L!
1O!
0$"
0&"
0)"
0,"
1/"
0."
00"
1+"
0-"
1("
1*"
1#"
0'"
0N!
0P!
1K!
0M!
1N!
1P!
0Q!
1S!
0("
0+"
1."
10"
01"
13"
14"
11"
03"
0T!
0V!
1Q!
0S!
1T!
1V!
0W!
04"
1W!
#960000
0"
0Q
0=!
#970000
1"
1Q
1=!
1L!
1$"
0#"
1%"
0K!
1M!
0N!
0P!
0Q!
1S!
0T!
0V!
0W!
#980000
0"
0Q
0=!
#990000
1"
1Q
1=!
0L!
0O!
0R!
0U!
0X!
0$"
1&"
1#"
1W!
0Y!
1T!
1V!
1Q!
0S!
0N"
1N!
1P!
1K!
0M!
0N!
0Q!
0T!
0W!
#1000000
0"
0Q
0=!
#1010000
1"
1Q
1=!
1L!
0`"
1$"
0O"
0.!
0R"
0#"
0%"
1'"
0Z!
0K!
1M!
0h
03!
1N!
1("
0!
0m
0/
#1020000
0"
0Q
0=!
#1030000
1"
1Q
1=!
0L!
1O!
0_"
0$"
0&"
1)"
0("
0*"
1#"
0'"
0N!
0P!
1K!
0M!
1N!
1P!
1Q!
1("
1*"
1+"
0+"
0Q!
#1040000
0"
0Q
0=!
#1050000
1"
1Q
1=!
1L!
1$"
0#"
1%"
0K!
1M!
0N!
0P!
1Q!
#1060000
0"
0Q
0=!
#1070000
1"
1Q
1=!
0L!
0O!
1R!
0$"
1&"
1#"
0Q!
1S!
1N"
1N!
1P!
1K!
0M!
0N!
1Q!
0S!
1T!
0T!
#1080000
0"
0Q
0=!
#1090000
1"
1Q
1=!
1L!
1$"
1O"
1.!
1R"
0#"
0%"
1'"
0K!
1M!
1h
13!
1N!
0("
0*"
1!
1m
1+"
1/
#1100000
0"
0Q
0=!
#1110000
1"
1Q
1=!
0L!
1O!
0$"
0&"
0)"
1,"
0+"
1-"
1("
1*"
1#"
0'"
0N!
0P!
1K!
0M!
1N!
1P!
0Q!
1S!
0("
1+"
0-"
0."
00"
01"
13"
1."
10"
1T!
1Q!
0S!
0T!
11"
03"
14"
04"
#1120000
0"
0Q
0=!
#1130000
1"
1Q
1=!
1L!
1$"
0#"
1%"
0K!
1M!
0N!
0P!
0Q!
1S!
1T!
#1140000
0"
0Q
0=!
#1150000
1"
1Q
1=!
0L!
0O!
0R!
1U!
0$"
1&"
1#"
0T!
0V!
1Q!
0S!
0N"
1N!
1P!
1K!
0M!
0N!
0Q!
1T!
1V!
1W!
0W!
#1160000
0"
0Q
0=!
#1170000
1"
1Q
1=!
1L!
1$"
0O"
0.!
0R"
0#"
0%"
1'"
0K!
1M!
0h
03!
1N!
1("
0!
0m
0/
#1180000
0"
0Q
0=!
#1190000
1"
1Q
1=!
0L!
1O!
0$"
0&"
1)"
0("
0*"
1#"
0'"
0N!
0P!
1K!
0M!
1N!
1P!
1Q!
1("
1*"
0+"
1-"
0."
00"
1+"
0-"
0Q!
1."
10"
01"
13"
14"
11"
03"
04"
#1200000
0"
0Q
0=!
#1210000
1"
1Q
1=!
1L!
1$"
0#"
1%"
0K!
1M!
0N!
0P!
1Q!
#1220000
0"
0Q
0=!
#1230000
1"
1Q
1=!
0L!
0O!
1R!
0$"
1&"
1#"
0Q!
1S!
1N"
1N!
1P!
1K!
0M!
0N!
1Q!
0S!
0T!
0V!
1W!
1T!
1V!
0W!
#1240000
0"
0Q
0=!
#1250000
1"
1Q
1=!
1L!
1$"
1O"
1.!
1R"
0#"
0%"
1'"
0K!
1M!
1h
13!
1N!
0("
0*"
1!
1m
0+"
1-"
1/
0."
00"
01"
13"
14"
#1260000
0"
0Q
0=!
#1270000
1"
1Q
1=!
0L!
1O!
0$"
0&"
0)"
0,"
0/"
02"
15"
04"
06"
11"
03"
1."
10"
1+"
0-"
1("
1*"
1#"
0'"
0N!
0P!
1K!
0M!
1N!
1P!
0Q!
1S!
0("
0+"
0."
01"
14"
16"
17"
07"
0T!
0V!
1Q!
0S!
1T!
1V!
1W!
0W!
#1280000
0"
0Q
0=!
#1290000
1"
1Q
1=!
1L!
1$"
0#"
1%"
0K!
1M!
0N!
0P!
0Q!
1S!
0T!
0V!
1W!
#1300000
0"
0Q
0=!
